{
  "name": "react-ex",
  "dependencies": {},
  "globalDependencies": {
    "react": "registry:dt/react#0.14.0+20160602151522",
    "react-addons-create-fragment": "registry:dt/react-addons-create-fragment#0.14.0+20160316155526",
    "react-addons-css-transition-group": "registry:dt/react-addons-css-transition-group#0.14.0+20160316155526",
    "react-addons-linked-state-mixin": "registry:dt/react-addons-linked-state-mixin#0.14.0+20160316155526",
    "react-addons-perf": "registry:dt/react-addons-perf#0.14.0+20160316155526",
    "react-addons-pure-render-mixin": "registry:dt/react-addons-pure-render-mixin#0.14.0+20160316155526",
    "react-addons-test-utils": "registry:dt/react-addons-test-utils#0.14.0+20160427035638",
    "react-addons-transition-group": "registry:dt/react-addons-transition-group#0.14.0+20160417134118",
    "react-addons-update": "registry:dt/react-addons-update#0.14.0+20160316155526",
    "react-dom": "registry:dt/react-dom#0.14.0+20160412154040",
    "react-global": "registry:dt/react-global#0.14.0+20160316155526",
    "react-redux": "registry:dt/react-redux#4.4.0+20160501125835",
    "redux": "registry:dt/redux#3.3.1+20160326112656"
  }
}
